\relax 
\@writefile{toc}{\contentsline {chapter}{\numberline {1}Assessed Exercise}{2}}
\@writefile{lof}{\addvspace {10\p@ }}
\@writefile{lot}{\addvspace {10\p@ }}
\@writefile{toc}{\contentsline {section}{\numberline {1.1}Query 1}{2}}
\@writefile{toc}{\contentsline {subsection}{\numberline {1.1.1}Query 1A}{2}}
\@writefile{toc}{\contentsline {subsection}{\numberline {1.1.2}Query 1B}{2}}
\@writefile{toc}{\contentsline {subsection}{\numberline {1.1.3}Query 1C [Optimized]}{2}}
\@writefile{toc}{\contentsline {subsection}{\numberline {1.1.4}Results}{2}}
\@writefile{toc}{\contentsline {subsection}{\numberline {1.1.5}Diagrams and Optimisations}{5}}
\@writefile{toc}{\contentsline {section}{\numberline {1.2}Query 2}{6}}
\@writefile{toc}{\contentsline {subsection}{\numberline {1.2.1}Query 2A}{6}}
\@writefile{toc}{\contentsline {subsection}{\numberline {1.2.2}Query 2B}{6}}
\@writefile{toc}{\contentsline {subsection}{\numberline {1.2.3}Query 2C [Optimized]}{7}}
\@writefile{toc}{\contentsline {subsection}{\numberline {1.2.4}Results}{8}}
\@writefile{toc}{\contentsline {subsection}{\numberline {1.2.5}Diagrams and Optimisations}{9}}
\@writefile{toc}{\contentsline {section}{\numberline {1.3}Query 3}{10}}
\@writefile{toc}{\contentsline {subsection}{\numberline {1.3.1}Query 3A}{10}}
\@writefile{toc}{\contentsline {subsection}{\numberline {1.3.2}Query 3B}{10}}
\@writefile{toc}{\contentsline {subsection}{\numberline {1.3.3}Query 3C [Optimized]}{11}}
\@writefile{toc}{\contentsline {subsection}{\numberline {1.3.4}Results}{12}}
\@writefile{toc}{\contentsline {subsection}{\numberline {1.3.5}Diagrams and Optimisations}{13}}
\@writefile{toc}{\contentsline {section}{\numberline {1.4}Query 4}{14}}
\@writefile{toc}{\contentsline {subsection}{\numberline {1.4.1}Query 4A}{14}}
\@writefile{toc}{\contentsline {subsection}{\numberline {1.4.2}Query 4B}{14}}
\@writefile{toc}{\contentsline {subsection}{\numberline {1.4.3}Query 4C [Optimized]}{15}}
\@writefile{toc}{\contentsline {subsection}{\numberline {1.4.4}Results}{16}}
\@writefile{toc}{\contentsline {subsection}{\numberline {1.4.5}Diagrams and Optimisations}{17}}
\@writefile{toc}{\contentsline {section}{\numberline {1.5}Query 5}{18}}
\@writefile{toc}{\contentsline {subsection}{\numberline {1.5.1}Query 5A}{18}}
\@writefile{toc}{\contentsline {subsection}{\numberline {1.5.2}Query 5B}{18}}
\@writefile{toc}{\contentsline {subsection}{\numberline {1.5.3}Query 5C [Optimized]}{19}}
\@writefile{toc}{\contentsline {subsection}{\numberline {1.5.4}Results}{19}}
\@writefile{toc}{\contentsline {section}{\numberline {1.6}Diagrams and Optimisations}{20}}
